astroid==2.4.2
async-generator==1.10
attrs==21.2.0
autopep8==1.5.4
beautifulsoup4==4.10.0
blinker==1.4
cachetools==4.2.4
certifi==2021.10.8
cffi==1.15.0
charset-normalizer==2.0.7
click==7.1.2
colorama==0.4.4
configparser==5.0.2
crayons==0.4.0
cryptography==35.0.0
cycler==0.10.0
decorator==4.4.2
dnspython==2.0.0
docopt==0.6.2
email-validator==1.1.1
flake8==3.8.3
flash==1.0.3
Flask==1.1.2
Flask-Login==0.5.0
Flask-Restless==0.17.0
Flask-SQLAlchemy==2.4.4
Flask-WTF==0.14.3
google-api-core==2.1.1
google-api-python-client==2.27.0
google-auth==2.3.0
google-auth-httplib2==0.1.0
google-search-results==2.4.0
googleapis-common-protos==1.53.0
gunicorn==20.1.0
h11==0.12.0
httplib2==0.20.1
idna==2.10
isort==4.3.21
itsdangerous==1.1.0
Jinja2==2.11.3
kiwisolver==1.3.2
lazy-object-proxy==1.4.3
MarkupSafe==1.1.1
matplotlib==3.4.3
mccabe==0.6.1
mimerender==0.6.0
numpy==1.21.2
outcome==1.1.0
Pillow==8.3.2
pipreqs==0.4.11
protobuf==3.19.0
psycopg2-binary==2.9.1
pyasn1==0.4.8
pyasn1-modules==0.2.8
pycodestyle==2.6.0
pycparser==2.20
pyflakes==2.2.0
pylint==2.5.3
pylint-flask==0.6
pylint-flask-sqlalchemy==0.2.0
pylint-plugin-utils==0.6
pyOpenSSL==21.0.0
pyparsing==2.4.7
python-dateutil==2.8.1
python-dotenv==0.14.0
python-mimeparse==1.6.0
pytz==2021.3
requests==2.26.0
rsa==4.7.2
scipy==1.7.1
SCons==4.2.0
selenium==4.0.0
six==1.15.0
sniffio==1.2.0
sortedcontainers==2.4.0
soupsieve==2.2.1
SQLAlchemy==1.3.18
toml==0.10.1
trio==0.19.0
trio-websocket==0.9.2
uritemplate==4.1.1
urllib3==1.26.7
validators==0.17.1
webdriver-manager==3.5.1
Werkzeug==1.0.1
wrapt==1.12.1
wsproto==1.0.0
WTForms==2.3.3
yarg==0.1.9
